<?xml version="1.0" encoding="utf-8"?>
<!-- Generator: Adobe Illustrator 19.1.0, SVG Export Plug-In . SVG Version: 6.00 Build 0)  -->
<svg version="1.1" xmlns="http://www.w3.org/2000/svg" xmlns:xlink="http://www.w3.org/1999/xlink" x="0px" y="0px"
	 viewBox="0 0 55.3 69.5" style="enable-background:new 0 0 55.3 69.5;" xml:space="preserve">
<style type="text/css">
	.st0{fill:#ED1C24;}
	.st1{fill:none;stroke:#27AAE1;stroke-miterlimit:10;}
	.st2{fill:#3C2415;}
</style>
<g id="FILL">
	<path class="st0" d="M54.8,27.7c0-15-12.2-27.2-27.2-27.2c-1,0-1.8,0.8-1.8,1.8s0.8,1.8,1.8,1.8c13,0,23.6,10.6,23.6,23.6
		c0,7.2-3.3,14.1-9,18.5h-1.6V22.8c0-0.7-0.4-1.3-1-1.6c-0.6-0.3-1.4-0.2-1.9,0.2l-10,7.8l-9.9-7.8c-0.5-0.4-1.3-0.5-1.9-0.2
		c-0.6,0.3-1,0.9-1,1.6v17.1c0,1,0.8,1.8,1.8,1.8s1.8-0.8,1.8-1.8V26.4l8.2,6.4c0.6,0.5,1.6,0.5,2.2,0l8.2-6.4v19.7h-24
		c-5.6-4.5-9-11.3-9-18.5c0-4.5,1.3-8.9,3.7-12.7c2.4-3.7,5.7-6.6,9.7-8.5C18.4,6,18.7,4.9,18.3,4c-0.4-0.9-1.5-1.3-2.4-0.8
		C11.4,5.4,7.5,8.8,4.8,13C2,17.4,0.5,22.5,0.5,27.7c0,8.1,3.6,15.8,9.8,20.9v9v9.6c0,1,0.8,1.8,1.8,1.8h31.3c1,0,1.8-0.8,1.8-1.8
		v-9.6v-9.2C51.3,43.3,54.8,35.7,54.8,27.7z M41.6,65.4H13.9v-6h16.9c1,0,1.8-0.8,1.8-1.8s-0.8-1.8-1.8-1.8H13.9v-6h27.7v7.8V65.4
		L41.6,65.4z"/>
</g>
<g id="BORDER">
	<path class="st1" d="M54.8,27.7c0-15-12.2-27.2-27.2-27.2c-1,0-1.8,0.8-1.8,1.8s0.8,1.8,1.8,1.8c13,0,23.6,10.6,23.6,23.6
		c0,7.2-3.3,14.1-9,18.5h-1.6V22.8c0-0.7-0.4-1.3-1-1.6c-0.6-0.3-1.4-0.2-1.9,0.2l-10,7.8l-9.9-7.8c-0.5-0.4-1.3-0.5-1.9-0.2
		c-0.6,0.3-1,0.9-1,1.6v17.1c0,1,0.8,1.8,1.8,1.8s1.8-0.8,1.8-1.8V26.4l8.2,6.4c0.6,0.5,1.6,0.5,2.2,0l8.2-6.4v19.7h-24
		c-5.6-4.5-9-11.3-9-18.5c0-4.5,1.3-8.9,3.7-12.7c2.4-3.7,5.7-6.6,9.7-8.5C18.4,6,18.7,4.9,18.3,4c-0.4-0.9-1.5-1.3-2.4-0.8
		C11.4,5.4,7.5,8.8,4.8,13C2,17.4,0.5,22.5,0.5,27.7c0,8.1,3.6,15.8,9.8,20.9v9v9.6c0,1,0.8,1.8,1.8,1.8h31.3c1,0,1.8-0.8,1.8-1.8
		v-9.6v-9.2C51.3,43.3,54.8,35.7,54.8,27.7z M41.6,65.4H13.9v-6h16.9c1,0,1.8-0.8,1.8-1.8s-0.8-1.8-1.8-1.8H13.9v-6h27.7v7.8V65.4
		L41.6,65.4z"/>
</g>
<g id="EXPAND">
	<g>
		<path class="st2" d="M43.4,69.5H12.1c-1.3,0-2.3-1-2.3-2.3V48.8C3.6,43.5,0,35.8,0,27.7c0-5.3,1.5-10.5,4.4-14.9
			c2.8-4.3,6.7-7.8,11.3-10c0.6-0.3,1.2-0.3,1.8-0.1c0.6,0.2,1,0.6,1.3,1.2c0.5,1.1,0.1,2.5-1.1,3.1c-3.9,1.9-7.1,4.7-9.4,8.4
			c-2.4,3.7-3.6,8-3.6,12.4c0,6.9,3.2,13.7,8.7,18h23.3V27.5l-7.4,5.8c-0.8,0.7-2,0.7-2.8,0L19,27.5v12.4c0,1.3-1,2.3-2.3,2.3
			c-1.3,0-2.3-1-2.3-2.3V22.8c0-0.9,0.5-1.7,1.3-2.1c0.8-0.4,1.7-0.3,2.4,0.3l9.6,7.6l9.7-7.6c0.7-0.5,1.6-0.6,2.4-0.3
			c0.8,0.4,1.3,1.2,1.3,2.1v22.9h1c5.4-4.4,8.7-11.1,8.7-18c0-12.7-10.4-23.1-23.1-23.1c-1.3,0-2.3-1-2.3-2.3s1-2.3,2.3-2.3
			c15.3,0,27.7,12.4,27.7,27.7c0,8.1-3.5,15.7-9.6,21v18.6C45.7,68.5,44.7,69.5,43.4,69.5z M16.7,3.5c-0.2,0-0.4,0-0.6,0.1
			c-4.5,2.1-8.2,5.5-10.9,9.7C2.5,17.6,1,22.5,1,27.7c0,7.9,3.5,15.4,9.6,20.5l0.2,0.1v18.9c0,0.7,0.6,1.3,1.3,1.3h31.3
			c0.7,0,1.3-0.6,1.3-1.3V48.2l0.2-0.1c6-5.1,9.4-12.5,9.4-20.4C54.3,13,42.4,1,27.7,1c-0.7,0-1.3,0.6-1.3,1.3s0.6,1.3,1.3,1.3
			c13.3,0,24.1,10.8,24.1,24.1c0,7.3-3.4,14.4-9.2,18.9l-0.1,0.1h-2.3V22.8c0-0.5-0.3-0.9-0.7-1.2c-0.4-0.2-1-0.2-1.4,0.1l-10.3,8.1
			l-10.3-8.1c-0.4-0.3-0.9-0.4-1.4-0.1c-0.4,0.2-0.7,0.7-0.7,1.2v17.1c0,0.7,0.6,1.3,1.3,1.3s1.3-0.6,1.3-1.3V25.4l9,7
			c0.5,0.4,1.1,0.4,1.6,0l9-7v21.3H12.9l-0.1-0.1C7,42,3.6,35,3.6,27.7c0-4.6,1.3-9.1,3.8-13c2.4-3.8,5.8-6.8,9.9-8.7
			c0.6-0.3,0.9-1.1,0.6-1.7c-0.1-0.3-0.4-0.5-0.7-0.7C17,3.5,16.8,3.5,16.7,3.5z M42.1,65.9H13.4v-7h17.4c0.7,0,1.3-0.6,1.3-1.3
			s-0.6-1.3-1.3-1.3H13.4v-7h28.7V65.9z M14.4,64.9h26.7V50.3H14.4v5h16.4c1.3,0,2.3,1,2.3,2.3c0,1.3-1,2.3-2.3,2.3H14.4V64.9z"/>
	</g>
</g>
</svg>
