<?xml version="1.0" standalone="no"?>

<svg width="200px" height="200px" viewBox="0 0 200 200"  version="1.1" xmlns="http://www.w3.org/2000/svg">
<circle cx="10" cy="10" r="2" fill="black"/>
  <path stroke="cyan" d="M10,10 l100,100z"/>
  <path stroke="red" d="M10,10 L100,100z"/>
</svg>